{
  "project_info": {
    "project_number": "10764323836",
    "firebase_url": "https://app-optativa.firebaseio.com",
    "project_id": "app-optativa",
    "storage_bucket": "app-optativa.appspot.com"
  },
  "client": [
    {
      "client_info": {
        "mobilesdk_app_id": "1:10764323836:android:557f2b774e96aa89",
        "android_client_info": {
          "package_name": "sanches.mero.bryan.ventasonlinemanta"
        }
      },
      "oauth_client": [
        {
          "client_id": "10764323836-h5dha5ouqu00encms21u048088um0vob.apps.googleusercontent.com",
          "client_type": 1,
          "android_info": {
            "package_name": "sanches.mero.bryan.ventasonlinemanta",
            "certificate_hash": "d4b5f5f899edc72f502e1d2b584d62d286a6cfec"
          }
        },
        {
          "client_id": "10764323836-0b8lsmjedsopq1q2nkbnke79jtbuj521.apps.googleusercontent.com",
          "client_type": 3
        }
      ],
      "api_key": [
        {
          "current_key": "AIzaSyB_TF_mjXME9iGCKdyvOLOK2GLZQYoyuWI"
        }
      ],
      "services": {
        "appinvite_service": {
          "other_platform_oauth_client": [
            {
              "client_id": "10764323836-0b8lsmjedsopq1q2nkbnke79jtbuj521.apps.googleusercontent.com",
              "client_type": 3
            }
          ]
        }
      }
    }
  ],
  "configuration_version": "1"
}